rtl/async_fifo_unit_test.vcd
$date
	Mon May 11 22:27:27 2026
$end
$version
	Icarus Verilog
$end
$timescale
	1ps
$end
$scope module async_fifo_unit_test $end
$scope module async_fifo_dut $end
$var wire 1 ! rclk $end
$var wire 1 " rinc $end
$var wire 1 # rrst_n $end
$var wire 1 $ wclk $end
$var wire 8 % wdata [7:0] $end
$var wire 1 & winc $end
$var wire 1 ' wrst_n $end
$var wire 9 ( wq2_rptr [8:0] $end
$var wire 9 ) wptr [8:0] $end
$var wire 1 * wfull $end
$var wire 8 + waddr [7:0] $end
$var wire 9 , rq2_wptr [8:0] $end
$var wire 9 - rptr [8:0] $end
$var wire 1 . rempty $end
$var wire 8 / rdata [7:0] $end
$var wire 8 0 raddr [7:0] $end
$var wire 1 1 awfull $end
$var wire 1 2 arempty $end
$var parameter 32 3 ASIZE $end
$var parameter 32 4 DSIZE $end
$var parameter 32 5 FALLTHROUGH $end
$scope module fifomem $end
$var wire 1 ! rclk $end
$var wire 1 " rclken $end
$var wire 1 $ wclk $end
$var wire 1 & wclken $end
$var wire 8 6 wdata [7:0] $end
$var wire 1 * wfull $end
$var wire 8 7 waddr [7:0] $end
$var wire 8 8 rdata [7:0] $end
$var wire 8 9 raddr [7:0] $end
$var parameter 32 : ADDRSIZE $end
$var parameter 32 ; DATASIZE $end
$var parameter 40 < DEPTH $end
$var parameter 32 = FALLTHROUGH $end
$var integer 32 > i [31:0] $end
$scope begin fallthrough $end
$upscope $end
$upscope $end
$scope module rptr_empty $end
$var wire 1 ! rclk $end
$var wire 9 ? rgraynext [8:0] $end
$var wire 9 @ rgraynextm1 [8:0] $end
$var wire 1 " rinc $end
$var wire 1 # rrst_n $end
$var wire 9 A rq2_wptr [8:0] $end
$var wire 1 B rempty_val $end
$var wire 9 C rbinnext [8:0] $end
$var wire 8 D raddr [7:0] $end
$var wire 1 E arempty_val $end
$var parameter 32 F ADDRSIZE $end
$var reg 1 2 arempty $end
$var reg 9 G rbin [8:0] $end
$var reg 1 . rempty $end
$var reg 9 H rptr [8:0] $end
$upscope $end
$scope module sync_r2w $end
$var wire 9 I rptr [8:0] $end
$var wire 1 $ wclk $end
$var wire 1 ' wrst_n $end
$var parameter 32 J ASIZE $end
$var reg 9 K wq1_rptr [8:0] $end
$var reg 9 L wq2_rptr [8:0] $end
$upscope $end
$scope module sync_w2r $end
$var wire 1 ! rclk $end
$var wire 1 # rrst_n $end
$var wire 9 M wptr [8:0] $end
$var parameter 32 N ASIZE $end
$var reg 9 O rq1_wptr [8:0] $end
$var reg 9 P rq2_wptr [8:0] $end
$upscope $end
$scope module wptr_full $end
$var wire 1 $ wclk $end
$var wire 9 Q wgraynext [8:0] $end
$var wire 9 R wgraynextp1 [8:0] $end
$var wire 1 & winc $end
$var wire 9 S wq2_rptr [8:0] $end
$var wire 1 ' wrst_n $end
$var wire 1 T wfull_val $end
$var wire 9 U wbinnext [8:0] $end
$var wire 8 V waddr [7:0] $end
$var wire 1 W awfull_val $end
$var parameter 32 X ADDRSIZE $end
$var reg 1 1 awfull $end
$var reg 9 Y wbin [8:0] $end
$var reg 1 * wfull $end
$var reg 9 Z wptr [8:0] $end
$upscope $end
$upscope $end
$upscope $end
$enddefinitions $end
$comment Show the parameter values. $end
$dumpall
b1000 X
b1000 N
b1000 J
b1000 F
b1010100010100100101010101000101 =
b100000000 <
b1000 ;
b1000 :
b1010100010100100101010101000101 5
b1000 4
b1000 3
$end
#0
$dumpvars
b0 Z
b0 Y
0W
b0 V
b0 U
0T
b0 S
b1 R
b0 Q
b0 P
b0 O
b0 M
b0 L
b0 K
b0 I
b0 H
b0 G
0E
b0 D
b0 C
1B
b0 A
b1 @
b0 ?
b100000000 >
b0 9
b0 8
b0 7
b0 6
02
01
b0 0
b0 /
1.
b0 -
b0 ,
b0 +
0*
b0 )
b0 (
0'
0&
b0 %
0$
0#
0"
0!
$end
#2000
1$
#3000
1!
#4000
0$
#6000
1$
0!
#8000
0$
#9000
1!
#10000
1$
#12000
0$
0!
#14000
1$
#15000
1!
#16000
0$
#18000
1$
0!
#20000
0$
#21000
1!
#22000
1$
#24000
0$
0!
#26000
1$
#27000
1!
#28000
0$
#30000
1$
0!
#32000
0$
#33000
1!
#34000
1$
#36000
0$
0!
#38000
1$
#39000
1!
#40000
0$
#42000
1$
0!
#44000
0$
#45000
1!
#46000
1$
#48000
0$
0!
#50000
1$
#51000
1!
#52000
0$
#54000
1$
0!
#56000
0$
#57000
1!
#58000
1$
#60000
0$
0!
#62000
1$
#63000
1!
#64000
0$
#66000
1$
0!
#68000
0$
#69000
1!
#70000
1$
#72000
0$
0!
#74000
1$
#75000
1!
#76000
0$
#78000
1$
0!
#80000
0$
#81000
1!
#82000
1$
#84000
0$
0!
#86000
1$
#87000
1!
#88000
0$
#90000
1$
0!
#92000
0$
#93000
1!
#94000
1$
#96000
0$
0!
#98000
1$
#99000
1!
#100000
0$
1#
1'
#102000
1$
0!
#104000
0$
#105000
1!
#106000
1$
#108000
0$
0!
#110000
1$
#111000
1!
#112000
0$
#114000
1$
0!
#116000
0$
#117000
1!
#118000
1$
#120000
0$
0!
#122000
1$
#123000
1!
#124000
0$
#126000
1$
0!
#128000
0$
#129000
1!
#130000
1$
#132000
0$
0!
#134000
1$
#135000
1!
#136000
0$
#138000
1$
0!
#140000
0$
#141000
1!
#142000
1$
#144000
0$
0!
#146000
1$
#147000
1!
#148000
0$
#150000
1$
0!
#152000
0$
#153000
1!
#154000
1$
#156000
0$
0!
#158000
1$
#159000
1!
#160000
0$
#162000
1$
0!
#164000
0$
#165000
1!
#166000
1$
#168000
0$
0!
#170000
1$
#171000
1!
#172000
0$
#174000
1$
0!
#176000
0$
#177000
1!
#178000
1$
#180000
0$
0!
#182000
1$
#183000
1!
#184000
0$
#186000
1$
0!
#188000
0$
#189000
1!
#190000
1$
#192000
0$
0!
#194000
1$
#195000
1!
#196000
0$
#198000
1$
0!
#200000
0$
0#
0'
#201000
1!
#202000
1$
#204000
0$
0!
#206000
1$
#207000
1!
#208000
0$
#210000
1$
0!
#212000
0$
#213000
1!
#214000
1$
#216000
0$
0!
#218000
1$
#219000
1!
#220000
0$
#222000
1$
0!
#224000
0$
#225000
1!
#226000
1$
#228000
0$
0!
#230000
1$
#231000
1!
#232000
0$
#234000
1$
0!
#236000
0$
#237000
1!
#238000
1$
#240000
0$
0!
#242000
1$
#243000
1!
#244000
0$
#246000
1$
0!
#248000
0$
#249000
1!
#250000
1$
#252000
0$
0!
#254000
1$
#255000
1!
#256000
0$
#258000
1$
0!
#260000
0$
#261000
1!
#262000
1$
#264000
0$
0!
#266000
1$
#267000
1!
#268000
0$
#270000
1$
0!
#272000
0$
#273000
1!
#274000
1$
#276000
0$
0!
#278000
1$
#279000
1!
#280000
0$
#282000
1$
0!
#284000
0$
#285000
1!
#286000
1$
#288000
0$
0!
#290000
1$
#291000
1!
#292000
0$
#294000
1$
0!
#296000
0$
#297000
1!
#298000
1$
#300000
0$
0!
1#
1'
#302000
1$
#303000
1!
#304000
0$
#306000
1$
0!
#308000
0$
#309000
1!
#310000
1$
#312000
0$
0!
#314000
1$
#315000
1!
#316000
0$
#318000
1$
0!
#320000
0$
#321000
1!
#322000
1$
#324000
0$
0!
#326000
1$
#327000
1!
#328000
0$
#330000
1$
0!
#332000
0$
#333000
1!
#334000
1$
#336000
0$
0!
#338000
1$
#339000
1!
#340000
0$
#342000
1$
0!
#344000
0$
#345000
1!
#346000
1$
#348000
0$
0!
#350000
1$
#351000
1!
#352000
0$
#354000
b1010 /
b1010 8
b11 R
b1 Q
b1 U
b1010 %
b1010 6
1&
1$
0!
#356000
0$
#357000
1!
#358000
b1 +
b1 7
b1 V
b1 Y
b1 )
b1 M
b1 Z
b11 R
b1 Q
b1 U
0&
1$
#360000
0$
0!
#362000
1$
#363000
b1 O
1!
#364000
0$
#366000
1$
0!
#368000
0$
#369000
1E
0B
b1 ,
b1 A
b1 P
1!
#370000
1$
#372000
0$
0!
#374000
1$
#375000
0E
b11 @
1B
b1 ?
b1 C
1"
0.
12
1!
#376000
0$
#378000
1$
0!
#380000
0$
#381000
b0 /
b0 8
b1 0
b1 9
b1 D
b11 @
1B
b1 ?
1.
02
b1 C
b1 G
b1 -
b1 H
b1 I
1!
#382000
b1 K
1$
#384000
0$
0!
#386000
b1 (
b1 L
b1 S
1$
#387000
1!
#388000
0$
#390000
1$
0!
#392000
0$
#393000
1!
#394000
1$
#396000
0$
0!
#398000
1$
#399000
1!
#400000
0$
#402000
1$
0!
#404000
0$
#405000
1!
#406000
1$
#408000
0$
0!
#410000
1$
#411000
1!
#412000
0$
#414000
1$
0!
#416000
0$
#417000
1!
#418000
1$
#420000
0$
0!
#422000
1$
#423000
1!
#424000
0$
#426000
1$
0!
#428000
b1010 /
b1010 8
b0 0
b0 9
b0 D
0E
b1 @
b0 ?
b0 +
b0 7
b0 V
b1 R
b0 Q
b0 C
b0 G
b0 -
b0 H
b0 I
1B
b0 ,
b0 A
b0 P
b0 O
b0 U
b0 Y
b0 )
b0 M
b0 Z
b0 (
b0 L
b0 S
b0 K
0$
0"
0#
b0 %
b0 6
0'
